<?xml version="1.0" encoding="UTF-8" standalone="no"?>
<!-- Created with Inkscape (http://www.inkscape.org/) -->

<svg
   xmlns:dc="http://purl.org/dc/elements/1.1/"
   xmlns:cc="http://creativecommons.org/ns#"
   xmlns:rdf="http://www.w3.org/1999/02/22-rdf-syntax-ns#"
   xmlns:svg="http://www.w3.org/2000/svg"
   xmlns="http://www.w3.org/2000/svg"
   xmlns:sodipodi="http://sodipodi.sourceforge.net/DTD/sodipodi-0.dtd"
   xmlns:inkscape="http://www.inkscape.org/namespaces/inkscape"
   width="37.5"
   height="37.5"
   id="svg4448"
   version="1.1"
   inkscape:version="0.48.1 r9760"
   sodipodi:docname="New document 11">
  <defs
     id="defs4450" />
  <sodipodi:namedview
     id="base"
     pagecolor="#ffffff"
     bordercolor="#666666"
     borderopacity="1.0"
     inkscape:pageopacity="0.0"
     inkscape:pageshadow="2"
     inkscape:zoom="1.4"
     inkscape:cx="-18.71149"
     inkscape:cy="1.0795571"
     inkscape:document-units="px"
     inkscape:current-layer="layer1"
     showgrid="false"
     fit-margin-top="0"
     fit-margin-left="0"
     fit-margin-right="0"
     fit-margin-bottom="0"
     inkscape:window-width="858"
     inkscape:window-height="423"
     inkscape:window-x="0"
     inkscape:window-y="318"
     inkscape:window-maximized="0" />
  <metadata
     id="metadata4453">
    <rdf:RDF>
      <cc:Work
         rdf:about="">
        <dc:format>image/svg+xml</dc:format>
        <dc:type
           rdf:resource="http://purl.org/dc/dcmitype/StillImage" />
        <dc:title></dc:title>
      </cc:Work>
    </rdf:RDF>
  </metadata>
  <g
     inkscape:label="Layer 1"
     inkscape:groupmode="layer"
     id="layer1"
     transform="translate(-356.25,-513.61218)">
    <path
       inkscape:connector-curvature="0"
       id="path3135"
       style="fill:#100f0d;fill-opacity:1;fill-rule:nonzero;stroke:none"
       d="m 367.029,540.33318 0,-15.942 15.942,0 0,15.942 z m 7.971,-26.721 c -10.35625,0 -18.75,8.39625 -18.75,18.75 0,10.35625 8.39375,18.75 18.75,18.75 10.35375,0 18.75,-8.39375 18.75,-18.75 0,-10.35375 -8.39625,-18.75 -18.75,-18.75"
       sodipodi:nodetypes="ccccccsssc" />
  </g>
</svg>
